{
	"analytic_code_key": "UA-131007758-12",
	"color": "orange",
	"theme_color_code":"#DC9001",
	"favicon": "icon.png",
	"invite_codes": {
		"haldi": "1725",
		"wedding": "1725"
	},
	"colors":["#df2349","#ff9800"],
	"logo_img": "logo1.png",
	"menu_list": [
		{
			"href": "home",
			"menu_name": "Home",
			"sort_order": 1,
			"visible": true
		},
		{
			"href": "couple",
			"menu_name": "Couple",
			"sort_order": 2,
			"visible": true
		},
		{
			"href": "story",
			"menu_name": "Our Story",
			"sort_order": 3,
			"visible": true
		},
		{
			"href": "our_events",
			"menu_name": "Events",
			"sort_order": 4,
			"visible": true
		},
		{
			"href": "family",
			"menu_name": "Family",
			"sort_order": 5,
			"visible": true
		},
		{
			"href": "gallery",
			"menu_name": "Gallery",
			"sort_order": 6,
			"visible": true
		},
		{
			"href": "rsvp",
			"menu_name": "Rsvp",
			"sort_order": 7,
			"visible": false
		},
		{
			"href": "testimony",
			"menu_name": "Testimonies",
			"sort_order": 8,
			"visible": false
		}
	],
	"sliderimages": [
		"cover_pic.jpg"
	],
	"slidermobimages": [
		"cover_pic.jpg"
	],

    "bride":{
        "name": "Gandha Khadam",
        "image": "amitgandha/IMG_9949-min.JPG",
        "desc_title": "A free soul",
        "desc": "To her family , she is Mamon - the over pampered , excessively protected girl from a typical Bong family. While mummy and daddy decided pretty much everything for her , love happened to her almost like a pleasant accident!",
        "name_sign": "signature-2.png",
        "social_media": {
            "instagram": "https://www.instagram.com/",
            "facebook": "https://www.facebook.com/",
            "twitter": "https://twitter.com/",
            "linkedin": "https://in.linkedin.com/"
        },
        "family":[
                {
                    "name": "Mother sharma",
                    "image": "featured-01.jpg",
                    "relation": "Mother",
                    "calls": "Majji",
                    "description": "Mom is always caring she cares a lot and helping too"
                },
                {
                    "name": "Brother sharma",
                    "image": "featured-03.jpg",
                    "relation": "Brother",
                    "calls": "Bhai",
                    "description": "nautiest boy in the world we do lot of mischeifs together"
                },
                {
                    "name": "Sister sharma",
                    "image": "featured-04.jpg",
                    "relation": "Sister",
                    "calls": "Siso",
                    "description": "she is my second mother who cares a lot after my mother"
                }
            ]

},

    "groom":{
      "name": "Amit Chavan",
      "image": "amitgandha/IMG_9948-min.JPG",
      "desc_title": "hopeless romantic",
      "desc": "Loved by everyone. He is a cool, laidback, intelligent and sporty person. And now love has chosen a lovely person for him, though he's getting married just for the wedding food",
      "name_sign": "signature-1.png",
      "social_media": {
		"instagram": "https://www.instagram.com/",
		"facebook": "https://www.facebook.com/",
		"twitter": "https://twitter.com/",
		"linkedin": "https://in.linkedin.com/"
    },
    "family": [
        {
            "name": "Varsha Koli",
            "image": "featured-02.jpg",
            "relation": "Mother",
            "calls": "Mummy",
            "description": "she is my second mother who cares a lot after my mother"
        },
        {
            "name": "Rahul Koli",
            "image": "featured-05.jpg",
            "relation": "Brother",
            "calls": "Bro",
            "description": "nautiest boy in the world we do lot of mischeifs together"
        },
        {
            "name": "Rohan Koli",
            "image": "featured-06.jpg",
            "relation": "Brother",
            "calls": "Bro",
            "description": "nautiest boy in the world we do lot of mischeifs together"
        }
    ]


    },
	
	"wedding_quote": "Being deeply loved by someone gives you strength, while loving someone deeply gives you courage",
	"wedding_details": {
		"date": "19/12/08T10:37:00",
		"time": "10:37",
		"timezone": "Morning",
		"location": "Country",
		"contact": "7718082689",
		"email": "abc@weddingo.com",
		"location_name": "Mangalya Mangal Karyalay",
		"address": "Mangalya Mangal Karyalay, Vetal Bambarde Titha, Near Mumbai Goa Highway, Tal- Kudal, Dist - Sindhudurga, Pin - 416520",
		"google_map": "https://goo.gl/maps/jGEu92ja5xpLY3MN6",
		"image": "amitgandha/images.jpg",
		"desc": "The wedding ceremony description",
		"day_name": "Monday",
		"geo": {
			"lat": "17.334543",
			"long": "27.423423"
		}
	},
	"twitter": "https://twitter.com/weddingo11",
	"facebook": "https://www.facebook.com/weddingowebsite/",
	"linkedin": "https://in.linkedin.com/in/abhay-amin-915a74aa",
	"our_story": [
		{
			"title": "How we met",
			"image": "amitgandha/first_meet.jpg",
			"date": "",
			"desc": "It was an typical arrange marriage. We first met on 8th of December in 2018 in kopineshwar mandir thane. Now what better place than a temple to meet your to be soulmate and the best part is we are getting married on 8th of December 2019.. A day to be remembered.."
		},
		{
			"title": "How I proposed",
			"image": "amitgandha/proposed.png",
			"date": "",
			"desc": "30th December was the day when I first took her out for a date. Though we were in touch around a month but off course we both needed time to understand each other. It was a good day spent with her and later in the day I proposed her and her answer was a 'YES' to me. From that day till today as I write this 'we feel we are made for each other'"
		},
		{
			"title": "How did we fall in love",
			"image": "amitgandha/fall_in_love.png",
			"date": "",
			"desc": "We both really don't have an answer to this. We kept meeting, our tuning was awesome and compatibility was superb. Guess that's what we call love. Isn't it ?"
		}
	],
	"to_contact": [
		"9999999990",
		"9876543210"
    ],
   




	"ceremonies": [
		{
			"title": "Haldi",
			"date": "19/12/07",
			"datetime": "17:40:09",
			"event-key":"Haldi",
			"location_name": "NMSA",
			"location_image": "address.jpg",
			"address": "Premnath Maruti Patil Marg",
			"google_map_link": "Premnath Maruti Patil Marg",
			"end_time": "17:40:09",
			"image": "herhaldi.jpg",
			"desc": "Join us as we begin the celebration of the marriage",
			"day_name": "Tursday",
			"attire":"",
			"note":"",
			"geo": {
				"lat": "334543",
				"long": "423423"
			},
			"facilities": [
				{
					"name": "Wifi",
					"available": false
				},
				{
					"name": "Parking",
					"available": true
				},
				{
					"name": "AC",
					"available": false
				}
			]
		},
		{
			"title": "Wedding",
			"date": "19/12/08",
			"datetime": "10:37:00",
			"event-key":"Wedding",
			"location_name": "NMSA",
			"location_image": "address.png",
			"address": "Premnath Maruti Patil Marg",
			"google_map_link": "Premnath Maruti Patil Marg",
			"end_time": "17:40:09",
			"image": "img-2.jpg",
			"desc": "The Maharashtrian groom and bride take sacred marriage vows in the company of their loving family and friends. Come join us as we say I do",
			"day_name": "Tursday",
			"attire":"",
			"note":"",
			"geo": {
				"lat": "334543",
				"long": "423423"
			},
			"facilities": [
				{
					"name": "Wifi",
					"available": false
				},
				{
					"name": "Parking",
					"available": true
				},
				{
					"name": "AC",
					"available": false
				}
			]
		},
		{
			"title": "Reception",
			"date": "19/12/08",
			"datetime": "17:40:09",
			"event-key":"Reception",
			"location_name": "NMSA",
			"location_image": "address.jpg",
			"address": "Premnath Maruti Patil Marg",
			"google_map_link": "Premnath Maruti Patil Marg",
			"end_time": "05:40:09",
			"image": "reception.jpg",
			"desc": "After all the overdose of religious ceremonies, let your hair down at a party to celebrate our marriage and love.",
			"day_name": "Tursday",
			"attire":"",
			"note":"",
			"geo": {
				"lat": "334543",
				"long": "423423"
			},
			"facilities": [
				{
					"name": "Wifi",
					"available": false
				},
				{
					"name": "Parking",
					"available": true
				},
				{
					"name": "AC",
					"available": false
				}
			]
		}
	],
	"video": [
		"https://www.youtube.com/embed/2jSSgpLt99Q",
		"url": "https://www.youtube.com/embed/2jSSgpLt99Q",
		"url": "https://www.youtube.com/embed/2jSSgpLt99Q"
	],
	"rsvp": {
		"action_url": "anything",
		"fields": [
			{
				"name": "name",
				"placeholder": "Your Name"
			},
			{
				"name": "name",
				"placeholder": "Your Name"
			},
			{
				"name": "name",
				"placeholder": "Your Name"
			}
		]
	},
	"gallery": [
		{
			"image": "IMG_8805.png",
			"caption": "Pre-wedding",
			"tag": "friends",
			"main_site": true,
			"image_heading": "travelling",
			"image_description": "paris is the beautiful place for couples "
		},
		{
			"image": "IMG_8767.png",
			"caption": "Pre-wedding",
			"tag": "friends",
			"main_site": true,
			"image_heading": "travelling",
			"image_description": "paris is the beautiful place for couples "
		},
		{
			"image": "IMG_0483.png",
			"caption": "Pre-wedding",
			"tag": "friends",
			"main_site": true,
			"image_heading": "travelling",
			"image_description": "paris is the beautiful place for couples "
		},
		{
			"image": "IMG_0345.jpg",
			"caption": "Pre-wedding",
			"tag": "friends",
			"main_site": true,
			"image_heading": "travelling",
			"image_description": "paris is the beautiful place for couples "
		},
		{
			"image": "amitgandha/gallery_3.jpg",
			"caption": "Pre-wedding",
			"tag": "friends",
			"main_site": true,
			"image_heading": "travelling",
			"image_description": "paris is the beautiful place for couples "
		},
		{
			"image": "amitgandha/gallery_2.jpg",
			"caption": "Pre-wedding",
			"tag": "friends",
			"main_site": true,
			"image_heading": "travelling",
			"image_description": "paris is the beautiful place for couples "
		},
		{
			"image": "IMG_0109.jpg",
			"caption": "Pre-wedding",
			"tag": "friends",
			"main_site": true,
			"image_heading": "travelling",
			"image_description": "paris is the beautiful place for couples "
		},
		{
			"image": "IMG_0157.jpg",
			"caption": "Pre-wedding",
			"tag": "friends",
			"main_site": true,
			"image_heading": "travelling",
			"image_description": "paris is the beautiful place for couples "
		},
		{
			"image": "amitgandha/IMG_0065-min.JPG",
			"caption": "Engagement",
			"tag": "friends",
			"main_site": true,
			"image_heading": "travelling",
			"image_description": "paris is the beautiful place for couples "
		},
		{
			"image": "amitgandha/IMG_9847-min.JPG",
			"caption": "Couples",
			"tag": "groom",
			"main_site": true,
			"image_heading": "travelling",
			"image_description": "paris is the beautiful place for couples "
		},
		{
			"image": "amitgandha/IMG_9868-min.JPG",
			"caption": "Couples",
			"tag": "groom",
			"main_site": true,
			"image_heading": "travelling",
			"image_description": "paris is the beautiful place for couples "
		},
		{
			"image": "amitgandha/IMG_0122-min.JPG",
			"caption": "Family",
			"tag": "groom",
			"main_site": true,
			"image_heading": "travelling",
			"image_description": "paris is the beautiful place for couples "
		},
		{
			"image": "amitgandha/IMG_0079-min.JPG",
			"caption": "Engagement",
			"tag": "bride",
			"main_site": true,
			"image_heading": "travelling",
			"image_description": "paris is the beautiful place for couples "
		},
		{
			"image": "amitgandha/IMG_9963-min.JPG",
			"caption": "Groom",
			"tag": "couple",
			"main_site": true,
			"image_heading": "travelling",
			"image_description": "paris is the beautiful place for couples "
		},
		{
			"image": "amitgandha/IMG_9852-min.JPG",
			"caption": "Couples",
			"tag": "couple",
			"main_site": true,
			"image_heading": "travelling",
			"image_description": "paris is the beautiful place for couples "
		},
		{
			"image": "amitgandha/IMG_0149-min.JPG",
			"caption": "Family",
			"tag": "family",
			"main_site": true,
			"image_heading": "family",
			"image_description": "paris is the beautiful place for couples "
		}
	],
	"gift_registry": {
		"background_img": "gift-logo-06.png",
		"company_details": [
			{
				"company_logo": "gift-logo-01.png",
				"company_name": "comapany name",
				"company_link": "anylink",
				"company_desc": "Find & Buy Everything You Need! Great Deals, Easy Returns, Hassle Free Shopping. Get Exciting Offers, Deals & Discounts on all Categories. Search Products. Gift Cards Available."
			},
			{
				"company_logo": "gift-logo-02.png",
				"company_name": "comapany name",
				"company_link": "anylink",
				"company_desc": "Find & Buy Everything You Need! Great Deals, Easy Returns, Hassle Free Shopping. Get Exciting Offers, Deals & Discounts on all Categories. Search Products. Gift Cards Available."
			},
			{
				"company_logo": "gift-logo-03.png",
				"company_name": "comapany name",
				"company_link": "anylink",
				"company_desc": "Find & Buy Everything You Need! Great Deals, Easy Returns, Hassle Free Shopping. Get Exciting Offers, Deals & Discounts on all Categories. Search Products. Gift Cards Available."
			}
		]
	},
	"galleryfilters": [
		"couple",
		"bride",
		"groom",
		"family",
		"friends"
	],
	"circleimage": "logo.png",
	"extras": [
		{
			"circleimage": "logo.png"
		}
	],
	"welcome_message": {
		"heading": "welcome",
		"sub_heading": "special day",
		"message": "My fiancé proposed on the Fourth of July. My mother asked us to go to the backyard to get some chairs and he took me by the shed where we could see all of the fireworks. He kissed me, then he took the ring box out of his pocket and asked me to be his wife. He was shaking a little. The proposal was a little silly but perfect, just like him. — Jeska Cords"
	},
	"testimony": {
		"heading": "best friend",
		"sub_heading": "alexa",
		"message": "Lorem Ipsum. Proin gravida nibh vel velit auctor aliquet. Aenean sollicitudin, lorem quis bibendum auctor, nisi elit consequat ipsum, nec sagittis s"
	},
	"footer_image": "amitgandha/IMG_9879-min.JPG"
}