{
	
	"analytic_code_key": "UA-131007758-12",
	"color": "red",
	"favicon": "icon.png",
	"invite_codes": {
		"haldi": "1122",
		"wedding": "4455"
	},
	"logo_img": "logo1.png",
	"menu_list": [{
		"href": "home",
		"menu_name": "Home",
		"sort_order": 1,
		"visible": true
	}, {
		"href": "couple",
		"menu_name": "Couple",
		"sort_order": 2,
		"visible": true
	}, {
		"href": "story",
		"menu_name": "Our Story",
		"sort_order": 3,
		"visible": true
	}, {
		"href": "events",
		"menu_name": "Events",
		"sort_order": 4,
		"visible": true
	}, {
		"href": "family",
		"menu_name": "Family",
		"sort_order": 5,
		"visible": true
	}, {
		"href": "gallery",
		"menu_name": "Gallery",
		"sort_order": 6,
		"visible": true
	}, {
		"href": "rsvp",
		"menu_name": "Rsvp",
		"sort_order": 7,
		"visible": true
	}, {
		"href": "testimony",
		"menu_name": "Testimonies",
		"sort_order": 8,
		"visible": false
	}, {
		"href": "video",
		"menu_name": "Video",
		"sort_order": 9,
		"visible": false
	}],
	"sliderimages": ["couplemain.jpg", "couple2.jpg","couplemain.jpg"],
	"slidermobimages": ["couplemain.jpg", "couple2.jpg","couplemain.jpg"],
	"bride_name": "Shweta Rana",
	"bride_image": "pic-bride.jpg",
	"bride_desc_title": "A free soul",
	"bride_desc": "To her family , she is Mamon - the over pampered , excessively protected girl from a typical Bong family. While mummy and daddy decided pretty much everything for her , love happened to her almost like a pleasant accident!",
	"bride_name_sign": "signature-2.png",
	"bride_social_media": {
		"instagram": "https://www.instagram.com/",
		"facebook": "https://www.facebook.com/",
		"twitter": "https://twitter.com/",
		"linkedin": "https://in.linkedin.com/"
	},
	"groom_name": "Rohit Patel",
	"groom_image": "pic-groom.jpg",
	"groom_desc_title": "hopeless romantic",
	"groom_desc": "Loved by everyone. He is a cool, laidback, intelligent and sporty person. And now love has chosen a lovely person for him, though he's getting married just for the wedding food",
	"groom_name_sign": "signature-1.png",
	"groom_social_media": {
		"instagram": "https://www.instagram.com/",
		"facebook": "https://www.facebook.com/",
		"twitter": "https://twitter.com/",
		"linkedin": "https://in.linkedin.com/"
	},
	"wedding_quote": "Being deeply loved by someone gives you strength, while loving someone deeply gives you courage",
	"wedding_details": {
		"date": "19/07/12T17:40:09",
		"location": "Country",
		"contact": "7718082689",
		"email": "abc@weddingo.com",
		"location_name": "Country Inn & Suites by Radisson",
		"address": "123, Random Road, East E3547 - Masko, Russia.",
		"google_map": "123, Random Road, East E3547 - Masko, Russia.",
		"image": "back5.jpg",
		"desc": "The wedding ceremony description",
		"day_name": "Monday",
		"geo": {
			"lat": "17.334543",
			"long": "27.423423"
		}
	},
	"twitter": "https://twitter.com/weddingo11",
	"facebook": "https://www.facebook.com/weddingowebsite/",
	"linkedin": "https://in.linkedin.com/in/abhay-amin-915a74aa",
	"our_story": [{
		"title": "Met for the first time",
		"image": "story-img-01.jpg",
		"date": "19/07/12",
		"desc": "We met each other while pursuing the final year of our engineering at VESIT. Funnily however , we had been studying in the same class for last three years"
	}, {
		"title": "First Date",
		"image": "story-img-02.jpg",
		"date": "19/07/12",
		"desc": "One day he asked her our for a date and they went to.."
	}, {
		"title": "Fall in love",
		"image": "story-img-03.jpg",
		"date": "19/07/12",
		"desc": "Our first date was in a small Udipi restaurant called Laxmi Next overlooking the powai lake. That was the only place that would open as early as 8 am. This began a series of early morning dates to which he was always late."
	}, {
		"title": "Proposal",
		"image": "story-img-04.jpg",
		"date": "19/07/12",
		"desc": "Somewhere between the rides on his bike (our partner in crime) and the early morning dates we fell in love. And we continued to fall in love, nothing changed, even if the distance did. Instead our relationship became just stronger and better"
	}],
	"to_contact": ["9999999990", "9876543210"],
	"family": {
		"bride_family": [{
			"name": "Mother sharma",
			"image": "featured-01.jpg",
			"relation": "Mother",
			"calls": "Majji",
			"description": "Mom is always caring she cares a lot and helping too"
		}, {
			"name": "Brother sharma",
			"image": "featured-03.jpg",
			"relation": "Brother",
			"calls": "Bhai",
			"description": "nautiest boy in the world we do lot of mischeifs together"
		}, {
			"name": "Sister sharma",
			"image": "featured-04.jpg",
			"relation": "Sister",
			"calls": "Siso",
			"description": "she is my second mother who cares a lot after my mother"
		}],
		"groom_family": [{
			"name": "Varsha Koli",
			"image": "featured-02.jpg",
			"relation": "Mother",
			"calls": "Mummy",
			"description": "she is my second mother who cares a lot after my mother"
		}, {
			"name": "Rahul Koli",
			"image": "featured-05.jpg",
			"relation": "Brother",
			"calls": "Bro",
			"description": "nautiest boy in the world we do lot of mischeifs together"
		}, {
			"name": "Rohan Koli",
			"image": "featured-06.jpg",
			"relation": "Brother",
			"calls": "Bro",
			"description": "nautiest boy in the world we do lot of mischeifs together"
		}]
	},
	"ceremonies": [{
		"title": "Ring Ceremony",
		"event-key":"Haldi",
        "event" : "Ring-Ceremonies-event",
        "dresscode" : "Indo western",
        "note":"",
		"date": "4/12/2019",
		"datetime": "8:30:00 PM",
		"location_name": "Fortune Select Exotica",
		"location_image": "",
		"address": "Fortune Select Exotica,Sector 19 Vashi Road, Near APMC Market,  Vashi, Navi Mumbai 400705",
		"google_map_link": "https://goo.gl/maps/vwwoEMatsfkqsMdD8",
		"end_time": "",
		"image": "engagement.jpg",
		"desc": "Join us as we begin the celebration of the marriage",
		"day_name": "wednesday",
		"geo": {
			"lat": "334543",
			"long": "423423"
		},
		"facilities": [{
			"name": "Wifi",
			"available": false
		}, {
			"name": "Parking",
			"available": true
		}, {
			"name": "AC",
			"available": false
		}]
	}, {
		"title": "Royal Wedding",
		"event-key":"Wedding",
        "event" : "wedding-event",
        "dresscode" : "Indian",
        "note":"",
		"date": "6/12/2019",
		"datetime": "11:30:00 AM",
		"location_name": "NMSA",
		"location_image": "address.png",
		"address": "Acres Club, Hemu Kalani Marg , Opp Bhakti Bhavan, Chembur East, Mumbai 400071",
		"google_map_link": "https://goo.gl/maps/7SDdyLBRmv4VaLg39",
		"end_time": "",
		"image": "img-2.jpg",
		"desc": "",
		"day_name": "Friday",
		"geo": {
			"lat": "334543",
			"long": "423423"
		},
		"facilities": [{
			"name": "Wifi",
			"available": false
		}, {
			"name": "Parking",
			"available": true
		}, {
			"name": "AC",
			"available": false
		}]
	}, {
		"title": "Wedding Reception",
		"event-key":"Reception",
        "event" : "reception-event",
        "dresscode" : "Western",
        "note":"",
		"date": "7/12/2019",
		"datetime": "8:30:00 PM",
		"location_name": "Holiday Inn Mumbai International Airport",
		"location_image": "address.jpg",
		"address": "Holiday Inn Mumbai International Airport",
		"google_map_link": "https://g.page/holidayinnmumbai?share",
		"end_time": "",
		"image": "mehndi.jpg",
		"desc": "After all the overdose of religious ceremonies, let your hair down at a party to celebrate our marriage and love.",
		"day_name": "Saturday",
		"geo": {
			"lat": "334543",
			"long": "423423"
		},
		"facilities": [{
			"name": "Wifi",
			"available": false
		}, {
			"name": "Parking",
			"available": true
		}, {
			"name": "AC",
			"available": false
		}]
	}],
	"video": ["https://www.youtube.com/embed/2jSSgpLt99Q","url": "https://www.youtube.com/embed/2jSSgpLt99Q","url": "https://www.youtube.com/embed/2jSSgpLt99Q"],
	"rsvp": {
		"action_url": "anything",
		"fields": [{
			"name": "name",
			"placeholder": "Your Name"
		}, {
			"name": "name",
			"placeholder": "Your Name"
		}, {
			"name": "name",
			"placeholder": "Your Name"
		}]
	},
	"gallery": [{
		"image": "gallery-image-01.jpg",
		"caption": "Random Picture",
		"tag": "friends",
		"main_site": true,
		"image_heading": "travelling",
		"image_description": "paris is the beautiful place for couples "
	}, {
		"image": "gallery-image-01.jpg",
		"caption": "Random Picture",
		"tag": "friends",
		"main_site": true,
		"image_heading": "travelling",
		"image_description": "paris is the beautiful place for couples "
	}, {
		"image": "gallery-image-01.jpg",
		"caption": "Random Picture",
		"tag": "groom",
		"main_site": true,
		"image_heading": "travelling",
		"image_description": "paris is the beautiful place for couples "
	}, {
		"image": "gallery-image-01.jpg",
		"caption": "Random Picture",
		"tag": "groom",
		"main_site": true,
		"image_heading": "travelling",
		"image_description": "paris is the beautiful place for couples "
	}, {
		"image": "gallery-image-01.jpg",
		"caption": "Random Picture",
		"tag": "groom",
		"main_site": true,
		"image_heading": "travelling",
		"image_description": "paris is the beautiful place for couples "
	}, {
		"image": "gallery-image-01.jpg",
		"caption": "Random Picture",
		"tag": "groom",
		"main_site": true,
		"image_heading": "travelling",
		"image_description": "paris is the beautiful place for couples "
	}, {
		"image": "gallery-image-01.jpg",
		"caption": "Random Picture",
		"tag": "bride",
		"main_site": true,
		"image_heading": "travelling",
		"image_description": "paris is the beautiful place for couples "
	}, {
		"image": "gallery-image-01.jpg",
		"caption": "Random Picture",
		"tag": "bride",
		"main_site": true,
		"image_heading": "travelling",
		"image_description": "paris is the beautiful place for couples "
	}, {
		"image": "gallery-image-01.jpg",
		"caption": "Random Picture",
		"tag": "couple",
		"main_site": true,
		"image_heading": "travelling",
		"image_description": "paris is the beautiful place for couples "
	}, {
		"image": "gallery-image-01.jpg",
		"caption": "Random Picture",
		"tag": "couple",
		"main_site": true,
		"image_heading": "travelling",
		"image_description": "paris is the beautiful place for couples "
	}, {
		"image": "gallery-image-01.jpg",
		"caption": "Random Picture",
		"tag": "couple",
		"main_site": true,
		"image_heading": "travelling",
		"image_description": "paris is the beautiful place for couples "
	}],
	"gift_registry": {
		"background_img": "gift-logo-06.png",
		"company_details": [{
			"company_logo": "gift-logo-01.png",
			"company_name": "comapany name",
			"company_link":"anylink",
			"company_desc": "Find & Buy Everything You Need! Great Deals, Easy Returns, Hassle Free Shopping. Get Exciting Offers, Deals & Discounts on all Categories. Search Products. Gift Cards Available."
		}, {
			"company_logo": "gift-logo-02.png",
			"company_name": "comapany name",
			"company_link":"anylink",
			"company_desc": "Find & Buy Everything You Need! Great Deals, Easy Returns, Hassle Free Shopping. Get Exciting Offers, Deals & Discounts on all Categories. Search Products. Gift Cards Available."
		}, {
			"company_logo": "gift-logo-03.png",
			"company_name": "comapany name",
			"company_link":"anylink",
			"company_desc": "Find & Buy Everything You Need! Great Deals, Easy Returns, Hassle Free Shopping. Get Exciting Offers, Deals & Discounts on all Categories. Search Products. Gift Cards Available."
		}]
	},
	"galleryfilters": ["couple", "bride", "groom", "family", "friends"],
	"circleimage": "logo.png",
	"extras": [{
		"circleimage": "logo.png"
	}],
	"welcome_message": {
		"heading": "welcome",
		"sub_heading": "special day",
		"message": "My fiancé proposed on the Fourth of July. My mother asked us to go to the backyard to get some chairs and he took me by the shed where we could see all of the fireworks. He kissed me, then he took the ring box out of his pocket and asked me to be his wife. He was shaking a little. The proposal was a little silly but perfect, just like him. — Jeska Cords"
	},
	"testimony": {
		"heading": "best friend",
		"sub_heading": "alexa",
		"message": "Lorem Ipsum. Proin gravida nibh vel velit auctor aliquet. Aenean sollicitudin, lorem quis bibendum auctor, nisi elit consequat ipsum, nec sagittis s"
	},
	"footer_image":"mehndi.jpg"
}