---
---
<svg width="176" height="125" viewBox="0 0 176 125" fill="none" xmlns="http://www.w3.org/2000/svg">
<g clip-path="url(#clip0)">
<path d="M30.8506 1.25941C30.8506 2.51953 30.9012 2.51953 35.1494 2.51953C39.3977 2.51953 39.4483 2.51953 39.4483 1.25941C39.4483 -0.000711717 39.3977 -0.000711717 35.1494 -0.000711717C30.9012 -0.000711717 30.8506 -0.000711717 30.8506 1.25941Z" fill="{{site.data['themeselect'].theme_color_code}}"/>
<path d="M45.3653 0.352903C44.4044 1.26019 45.0619 2.46991 46.6803 2.72193C52.7493 3.62922 53.8619 3.478 53.5079 1.71383C53.4067 1.15938 52.7493 0.655332 51.8389 0.453713C49.7148 6.92357e-05 45.7699 -0.0503356 45.3653 0.352903Z" fill="{{site.data['themeselect'].theme_color_code}}"/>
<path d="M19.4715 0.958649C17.3473 1.21067 16.8922 1.4627 16.791 2.36998C16.6393 3.47889 16.791 3.5293 20.1289 3.5293C24.4784 3.5293 25.2876 3.22687 25.2876 1.71472C25.2876 0.404195 24.8324 0.35379 19.4715 0.958649Z" fill="{{site.data['themeselect'].theme_color_code}}"/>
<path d="M59.1719 2.06518C58.4638 3.3253 59.8293 4.53501 61.9535 4.53501C62.9144 4.53501 64.2293 4.73663 64.8868 4.98866C65.7466 5.34149 66.4041 5.29109 67.011 4.88785C68.2753 3.93016 67.4156 2.56922 65.342 2.2668C64.2799 2.11558 62.611 1.81315 61.5489 1.56113C59.9305 1.20829 59.5765 1.3091 59.1719 2.06518Z" fill="{{site.data['themeselect'].theme_color_code}}"/>
<path d="M72.4739 5.34219C72.1198 6.35029 73.4854 7.56001 75.1037 7.56001C75.7106 7.56001 76.3681 7.76163 76.6716 8.06405C76.9244 8.31608 77.9359 8.61851 78.8969 8.66891C80.3635 8.76972 80.667 8.66891 80.667 7.86244C80.667 7.35839 80.3129 6.75353 79.9083 6.55191C79.5038 6.35029 78.6946 5.94705 78.1382 5.69503C77.5313 5.3926 76.1152 4.98936 74.952 4.78774C73.1819 4.48531 72.7773 4.58612 72.4739 5.34219Z" fill="{{site.data['themeselect'].theme_color_code}}"/>
<path d="M85.8253 9.92951C85.1678 10.5848 85.4712 12.1473 86.3816 12.4498C86.8368 12.6514 88.2023 13.4074 89.4161 14.2643C91.6919 15.7765 93.0575 15.7765 93.0575 14.2643C93.0575 12.8026 86.685 9.02222 85.8253 9.92951Z" fill="{{site.data['themeselect'].theme_color_code}}"/>
<path d="M96.5977 19.0527C96.5977 19.5568 97.0023 20.4136 97.508 20.9681C97.9632 21.4721 99.0252 22.7827 99.8344 23.8412C101.2 25.6557 101.301 25.7062 102.211 24.8997C103.122 24.0932 103.122 24.0428 102.06 22.4802C99.3793 18.5487 96.5977 16.8349 96.5977 19.0527Z" fill="{{site.data['themeselect'].theme_color_code}}"/>
<path d="M104.284 29.8388C103.576 30.5444 103.526 31.4517 104.133 32.6614C104.385 33.1151 104.841 34.476 105.144 35.6353C105.599 37.2483 106.004 37.8027 106.712 37.8027C107.218 37.8027 107.825 37.5507 108.027 37.2483C108.583 36.341 106.156 29.2339 105.296 29.2339C105.043 29.2339 104.638 29.4859 104.284 29.8388Z" fill="{{site.data['themeselect'].theme_color_code}}"/>
<path d="M106.865 43.2475C106.561 43.4491 106.157 45.2133 105.954 47.1287C105.651 50.1026 105.752 50.8083 106.41 51.3627C106.915 51.8164 107.421 51.8668 107.725 51.6147C108.129 51.2115 109.242 46.0198 109.242 44.5581C109.242 43.7012 107.573 42.7939 106.865 43.2475Z" fill="{{site.data['themeselect'].theme_color_code}}"/>
<path d="M102.312 59.8824C100.845 62.9571 100.744 63.3099 101.503 63.8644C102.616 64.7213 103.425 64.0156 104.993 60.7897C106.56 57.6142 106.56 56.4549 105.094 56.4549C104.183 56.5053 103.577 57.211 102.312 59.8824Z" fill="{{site.data['themeselect'].theme_color_code}}"/>
<path d="M18.4094 67.2899C17.9036 68.6004 18.7128 68.9532 22.7588 69.1549C26.5013 69.3061 26.5519 69.3061 26.5519 68.0459C26.5519 66.8362 26.4508 66.7858 22.6071 66.6346C19.3703 66.5338 18.6623 66.6346 18.4094 67.2899Z" fill="{{site.data['themeselect'].theme_color_code}}"/>
<path d="M10.9245 68.3992C8.80041 68.9537 5.8165 71.0203 5.66477 72.0284C5.4119 73.4901 6.47397 73.3893 10.1659 71.6755C12.4924 70.617 13.1498 70.113 13.0487 69.3569C12.897 68.2984 12.3912 68.0464 10.9245 68.3992Z" fill="{{site.data['themeselect'].theme_color_code}}"/>
<path d="M32.064 68.8015C31.71 69.7088 32.6709 71.0697 33.733 71.0697C34.1376 71.0697 35.6043 71.4225 36.9698 71.8762C38.8916 72.5314 39.6502 72.5818 40.1054 72.1282C41.3698 70.8681 38.7905 69.2047 34.087 68.3478C32.7721 68.0958 32.2663 68.1966 32.064 68.8015Z" fill="{{site.data['themeselect'].theme_color_code}}"/>
<path d="M94.9286 70.6679C92.3999 73.541 91.8941 75.1035 93.5125 75.1035C94.5746 75.1035 99.1263 70.3655 99.1263 69.307C99.1263 68.8029 98.1148 68.0468 97.4068 68.0468C97.3056 68.0468 96.193 69.2566 94.9286 70.6679Z" fill="{{site.data['themeselect'].theme_color_code}}"/>
<path d="M45.6185 73.1888C44.5058 74.2977 45.0116 74.953 48.3495 76.6164C50.8277 77.9269 51.8897 78.1789 52.4966 77.8261C54.0644 76.818 53.6093 76.1627 50.2208 74.4993C48.3495 73.5921 46.6805 72.7856 46.5288 72.6848C46.3771 72.6344 45.9725 72.836 45.6185 73.1888Z" fill="{{site.data['themeselect'].theme_color_code}}"/>
<path d="M1.87112 75.9095C1.36537 76.4639 1.46652 78.5809 2.22514 81.4036C2.73089 83.319 3.13549 83.9238 3.84353 83.9238C5.1079 83.9238 5.3102 81.8068 4.39985 78.3793C3.79296 76.0607 2.73089 75.0526 1.87112 75.9095Z" fill="{{site.data['themeselect'].theme_color_code}}"/>
<path d="M84.7126 79.9937C81.4758 82.4131 81.1724 83.018 82.5379 83.8245C83.7011 84.5805 89.1126 80.4473 88.9103 78.9856C88.6574 77.3222 87.9494 77.5239 84.7126 79.9937Z" fill="{{site.data['themeselect'].theme_color_code}}"/>
<path d="M58.0086 79.9927C57.1994 80.7488 57.8063 81.6056 60.4362 83.3698C63.5213 85.386 65.2408 85.6884 65.2408 84.2267C65.2408 83.6722 64.1787 82.6137 62.4592 81.4544C59.7281 79.6902 58.6661 79.287 58.0086 79.9927Z" fill="{{site.data['themeselect'].theme_color_code}}"/>
<path d="M74.8505 86.747C73.8895 87.5031 73.1309 87.6543 71.6642 87.4527C69.3884 87.1503 68.8321 87.9568 69.793 90.2754C70.2482 91.3339 70.7033 91.7371 71.3102 91.5859C71.7654 91.4851 72.7263 91.7875 73.3838 92.2916C75.0528 93.5517 76.8734 93.5517 76.8734 92.2412C76.8734 91.7371 76.4183 91.0315 75.8619 90.729C74.6987 90.1242 74.4964 89.2169 75.5079 89.2169C75.9125 89.2169 76.6206 88.7632 77.1263 88.2088C77.8849 87.4023 77.8849 87.0999 77.3792 86.4446C76.57 85.4869 76.3677 85.4869 74.8505 86.747Z" fill="{{site.data['themeselect'].theme_color_code}}"/>
<path d="M5.81556 89.217C5.20866 90.1747 9.81096 95.2656 11.2271 95.2656C12.6937 95.2656 12.2891 93.8543 10.0133 91.1828C7.9397 88.8138 6.47303 88.1585 5.81556 89.217Z" fill="{{site.data['themeselect'].theme_color_code}}"/>
<path d="M60.0321 94.1571C57.7056 95.2156 57.1493 95.7196 57.2505 96.5261C57.4528 97.8366 59.0712 97.6854 62.6114 95.9716C64.4827 95.0644 65.2413 94.4091 65.1401 93.8042C64.8873 92.5441 63.2689 92.6449 60.0321 94.1571Z" fill="{{site.data['themeselect'].theme_color_code}}"/>
<path d="M80.6156 96.5253C80.211 97.483 80.4638 97.8358 83.7006 100.306C86.3811 102.372 87.9995 102.675 87.9995 101.163C87.9995 100.759 86.9374 99.5496 85.6225 98.4911C84.2569 97.4326 83.1443 96.3741 83.0431 96.1725C82.7397 95.4668 80.919 95.7188 80.6156 96.5253Z" fill="{{site.data['themeselect'].theme_color_code}}"/>
<path d="M16.4872 97.6344C16.032 98.7937 17.1447 99.5497 20.5332 100.558C23.9217 101.516 24.124 101.516 24.4274 100.255C24.7309 99.1969 23.8205 98.6425 19.6734 97.3319C17.2458 96.5759 16.8412 96.6263 16.4872 97.6344Z" fill="{{site.data['themeselect'].theme_color_code}}"/>
<path d="M46.1747 98.4414C44.4046 98.895 44 99.1974 44 100.155C44 101.113 44.2529 101.314 45.669 101.314C46.5287 101.264 48.4506 100.962 49.8161 100.609C51.7379 100.105 52.3448 99.7015 52.3448 98.9958C52.3448 98.2398 51.9402 98.0381 50.3218 97.9877C49.2092 97.9373 47.3379 98.1389 46.1747 98.4414Z" fill="{{site.data['themeselect'].theme_color_code}}"/>
<path d="M29.9405 100.911C30.0923 102.02 30.3451 102.07 34.1382 102.07C37.9313 102.07 38.1842 102.02 38.3359 100.911C38.4877 99.8525 38.3865 99.8021 34.1382 99.8021C29.89 99.8021 29.7888 99.8525 29.9405 100.911Z" fill="{{site.data['themeselect'].theme_color_code}}"/>
<path d="M168.666 103.43C162.446 104.942 162.294 104.993 162.446 105.799C162.597 106.404 163.103 106.555 164.873 106.404C166.087 106.303 167.655 106.051 168.262 105.799C169.324 105.396 169.425 105.497 169.425 106.858C169.425 108.017 169.627 108.37 170.436 108.37C171.347 108.37 171.448 108.723 171.448 111.243C171.448 114.519 171.954 115.729 173.167 115.275C174.128 114.872 174.23 112.806 173.37 106.959C172.763 102.372 172.864 102.422 168.666 103.43Z" fill="{{site.data['themeselect'].theme_color_code}}"/>
<path d="M92.1472 104.943C91.1357 105.951 91.3886 106.203 94.9288 108.572C97.4576 110.286 98.4691 110.74 98.9748 110.286C100.189 109.329 99.6829 108.522 96.4461 106.405C92.8552 104.086 92.9564 104.137 92.1472 104.943Z" fill="{{site.data['themeselect'].theme_color_code}}"/>
<path d="M104.184 112.655C103.375 113.663 103.881 114.217 107.421 116.133C110.102 117.594 111.922 117.695 112.175 116.334C112.327 115.578 110.911 114.721 105.145 111.999C104.994 111.949 104.538 112.201 104.184 112.655Z" fill="{{site.data['themeselect'].theme_color_code}}"/>
<path d="M161.232 114.268C158.805 116.234 158.4 116.738 158.855 117.494C159.412 118.552 160.069 118.703 160.98 117.947C161.334 117.695 162.598 116.637 163.862 115.629C165.127 114.621 166.138 113.411 166.138 112.957C166.138 111.445 164.115 111.949 161.232 114.268Z" fill="{{site.data['themeselect'].theme_color_code}}"/>
<path d="M117.182 118.301C116.018 119.46 118.092 121.476 120.418 121.476C120.924 121.476 121.48 121.678 121.632 121.98C121.784 122.232 122.745 122.484 123.706 122.484C125.274 122.484 125.476 122.333 125.324 121.375C125.223 120.519 124.565 120.065 122.542 119.46C121.076 119.006 119.761 118.502 119.559 118.301C119.103 117.847 117.637 117.847 117.182 118.301Z" fill="{{site.data['themeselect'].theme_color_code}}"/>
<path d="M151.723 119.459C151.319 119.66 149.953 120.164 148.689 120.467C147.425 120.819 146.11 121.172 145.756 121.273C145.351 121.374 145.149 121.878 145.25 122.332C145.452 123.592 147.627 123.743 150.56 122.735C153.797 121.626 154.353 121.122 153.696 119.912C153.14 118.854 152.887 118.803 151.723 119.459Z" fill="{{site.data['themeselect'].theme_color_code}}"/>
<path d="M131.191 122.181C130.482 124.046 131.292 124.5 135.54 124.5C139.535 124.5 139.586 124.5 139.586 123.24C139.586 122.081 139.434 121.98 137.108 121.98C135.742 121.98 133.972 121.829 133.062 121.677C131.899 121.425 131.443 121.577 131.191 122.181Z" fill="{{site.data['themeselect'].theme_color_code}}"/>
</g>
<defs>
<clipPath id="clip0">
<rect width="176" height="125" fill="white"/>
</clipPath>
</defs>
</svg>
