---
---
<svg width="176" height="125" viewBox="0 0 176 125" fill="none" xmlns="http://www.w3.org/2000/svg">
<g clip-path="url(#clip0)">
<path d="M123 0.453373C122.1 0.705397 121.75 1.15904 121.75 2.01592C121.75 3.17524 121.95 3.27604 123.75 3.17524C124.85 3.12483 126.7 2.92321 127.9 2.772C129.75 2.46957 130.05 2.31835 129.9 1.36066C129.75 0.402968 129.4 0.251753 127 0.150944C125.5 0.100539 123.7 0.251753 123 0.453373Z" fill="{{site.data['themeselect'].theme_color_code}}"/>
<path d="M135.7 0.755361C135.15 2.11629 136.05 2.51953 140.05 2.51953C143.95 2.51953 144 2.51953 144 1.25941C144 -0.000711669 143.95 -0.000711669 140 -0.000711669C136.95 -0.000711669 135.9 0.150503 135.7 0.755361Z" fill="{{site.data['themeselect'].theme_color_code}}"/>
<path d="M149.7 1.21067C149.1 2.87403 150.4 3.5293 154.3 3.5293C157.9 3.5293 158 3.47889 158 2.26918C158 1.21067 157.75 1.00905 156.65 1.00905C155.85 1.00905 154.05 0.857839 152.65 0.706625C150.5 0.404196 149.95 0.505005 149.7 1.21067Z" fill="{{site.data['themeselect'].theme_color_code}}"/>
<path d="M111.05 2.01642C108.1 2.47007 107.3 2.97411 107.6 4.33505C107.8 5.34314 108.25 5.39355 111.75 4.78869C115.9 4.13343 116 4.08302 116 2.7725C116 1.36116 115.75 1.36116 111.05 2.01642Z" fill="{{site.data['themeselect'].theme_color_code}}"/>
<path d="M98.1998 5.24296C96.4998 5.84782 94.7498 6.6543 94.2998 7.00713C93.5498 7.66239 93.5498 7.7632 94.2998 8.62009C94.7498 9.12413 95.3998 9.37616 95.6998 9.17454C96.5998 8.56968 99.6998 7.56158 100.6 7.56158C101.85 7.56158 102.6 5.89822 101.85 4.94053C101.35 4.28527 100.85 4.33567 98.1998 5.24296Z" fill="{{site.data['themeselect'].theme_color_code}}"/>
<path d="M84.25 11.8965C82.5 13.1062 81.75 13.9631 81.75 14.7696C81.75 16.2313 83 16.0297 85.8 14.0639C87 13.2574 88.15 12.6022 88.45 12.6022C88.75 12.6022 89 12.0477 89 11.342C89 9.52747 87.35 9.72909 84.25 11.8965Z" fill="{{site.data['themeselect'].theme_color_code}}"/>
<path d="M74.3503 20.3139C71.2503 24.1447 70.8503 24.9512 71.7003 25.7073C72.1503 26.0097 72.6503 26.2113 72.9003 26.1105C73.5003 25.9089 78.0003 20.2635 78.0003 19.8099C78.0003 19.5579 77.5503 19.1042 77.0503 18.8018C76.2003 18.2473 75.8503 18.449 74.3503 20.3139Z" fill="{{site.data['themeselect'].theme_color_code}}"/>
<path d="M67.8496 31.0997C67.7496 31.3517 67.3996 32.511 67.0496 33.7712C66.6996 35.0313 66.1996 36.5938 65.8996 37.2491C65.5496 38.1564 65.6496 38.6604 66.2496 39.2653C66.9996 40.0214 67.1496 39.971 68.0496 38.862C68.5496 38.2068 68.9996 37.2995 68.9996 36.8459C68.9996 36.3922 69.3496 35.1321 69.6996 34.0232C70.1996 32.6118 70.2496 31.8054 69.8996 31.3517C69.2996 30.6965 68.1496 30.5452 67.8496 31.0997Z" fill="{{site.data['themeselect'].theme_color_code}}"/>
<path d="M65.4995 45.3648C64.9995 45.6672 64.9495 46.6249 65.1995 49.3972C65.5495 53.5808 65.6995 53.9336 67.0495 53.9336C67.8995 53.9336 67.9995 53.5808 67.9995 49.9012C67.9995 46.5745 67.8495 45.8184 67.0995 45.4152C66.5995 45.1631 65.8995 45.1127 65.4995 45.3648Z" fill="{{site.data['themeselect'].theme_color_code}}"/>
<path d="M68.2504 59.6801C67.4004 60.285 67.4504 60.537 69.1004 63.8133C70.7504 67.2408 72.2004 68.4001 72.8004 66.8376C73.1004 66.0311 70.4004 59.7809 69.5504 59.2769C69.3504 59.1256 68.7504 59.3273 68.2504 59.6801Z" fill="{{site.data['themeselect'].theme_color_code}}"/>
<path d="M147.7 67.2903C147 69.1049 147.8 69.5081 151.85 69.2057C156 68.9033 156.8 68.6008 156.35 67.3407C155.9 66.1814 148.1 66.1814 147.7 67.2903Z" fill="{{site.data['themeselect'].theme_color_code}}"/>
<path d="M139.5 68.6515C138.55 68.9035 137.15 69.2563 136.4 69.4075C135.65 69.5588 134.65 70.1132 134.15 70.6677C133.3 71.6254 133.3 71.6758 134.15 72.331C134.85 72.8351 135.6 72.7343 138.4 71.827C140.55 71.0709 141.8 70.3652 141.9 69.8108C142.2 68.5003 141.45 68.1474 139.5 68.6515Z" fill="{{site.data['themeselect'].theme_color_code}}"/>
<path d="M162.1 68.6519C161.45 69.3071 162.2 71.0713 163.2 71.0713C163.55 71.0713 164.95 71.6257 166.3 72.3314C169.1 73.7427 169.8 73.894 170.15 72.9363C170.55 71.8778 169.85 71.1217 167.35 69.8616C164.35 68.299 162.8 67.9462 162.1 68.6519Z" fill="{{site.data['themeselect'].theme_color_code}}"/>
<path d="M75.3496 71.9277C74.7496 72.5326 74.9996 72.9862 77.4996 76.1113C79.6996 78.7324 80.1996 79.0852 80.9996 78.6316C82.4496 77.8251 82.1996 77.1698 79.4996 74.1959C77.1996 71.7261 76.0996 71.1212 75.3496 71.9277Z" fill="{{site.data['themeselect'].theme_color_code}}"/>
<path d="M124.2 74.5985C120.9 76.2115 120.1 77.1691 121.25 78.1268C122.3 79.0341 128.75 75.7578 128.75 74.3465C128.75 72.8847 127.6 72.9351 124.2 74.5985Z" fill="{{site.data['themeselect'].theme_color_code}}"/>
<path d="M172.8 78.2286C172.6 78.9343 171.7 82.7147 171.35 84.5292C171.1 85.7894 172.15 86.9487 173.15 86.5454C173.85 86.2934 175.15 80.8497 174.9 79.0855C174.75 77.775 173.1 77.1197 172.8 78.2286Z" fill="{{site.data['themeselect'].theme_color_code}}"/>
<path d="M111.65 81.8061C109.9 82.9654 108.5 84.1247 108.5 84.3767C108.5 84.6287 108.9 85.0824 109.35 85.4352C110.05 85.9897 110.7 85.7376 113.55 83.8223C116.6 81.8061 116.9 81.4532 116.35 80.5963C115.55 79.2858 115.2 79.3866 111.65 81.8061Z" fill="{{site.data['themeselect'].theme_color_code}}"/>
<path d="M85.5 82.7143C85.5 83.8736 85.8 84.176 89.4 86.7467C91.45 88.2084 91.65 88.2588 92.4 87.5028C93.35 86.5451 93.45 86.6963 88.95 83.0671C86.85 81.3534 85.5 81.2526 85.5 82.7143Z" fill="{{site.data['themeselect'].theme_color_code}}"/>
<path d="M101.35 88.9638C100.4 89.8207 99.6002 90.1231 98.8002 89.9215C97.0002 89.4678 96.2502 90.8288 97.2502 92.7441C97.8502 93.9539 98.3002 94.2563 99.0502 94.0043C99.6002 93.8026 100.55 94.0043 101.25 94.4579C102.6 95.3652 104.3 95.5164 104.7 94.8107C105.15 94.1051 104.5 92.7441 103.75 92.7441C103.4 92.7441 102.9 92.4417 102.6 92.0889C102.15 91.5848 102.4 91.232 103.55 90.5263C104.45 89.9719 105 89.3166 104.9 88.8126C104.65 87.502 102.9 87.6028 101.35 88.9638Z" fill="{{site.data['themeselect'].theme_color_code}}"/>
<path d="M167 93.5016C166.4 94.4593 165.4 95.669 164.7 96.2235C163.3 97.3324 163.2 97.9372 164.25 98.7941C164.9 99.3486 165.25 99.2478 166.35 98.2397C168.1 96.5763 170.5 93.2496 170.5 92.3927C170.5 92.0399 169.95 91.7374 169.3 91.7374C168.45 91.7374 167.75 92.2919 167 93.5016Z" fill="{{site.data['themeselect'].theme_color_code}}"/>
<path d="M90.5002 97.4335C89.8002 98.0887 88.6002 99.0464 87.8502 99.5001C86.5002 100.458 86.0502 101.97 87.0502 102.575C87.6502 102.978 90.6002 101.063 92.6502 99.0464C93.7002 97.9375 93.9002 97.4839 93.4502 96.9798C92.6502 95.9717 91.9002 96.1229 90.5002 97.4335Z" fill="{{site.data['themeselect'].theme_color_code}}"/>
<path d="M109.85 96.6268C108.9 97.5844 109.65 98.8446 111.75 99.8023C115.7 101.617 116.35 101.768 116.95 101.163C117.85 100.256 117.6 99.2982 116.25 98.7942C115.55 98.5421 114 97.8365 112.8 97.282C110.3 96.1227 110.3 96.1731 109.85 96.6268Z" fill="{{site.data['themeselect'].theme_color_code}}"/>
<path d="M1.8 101.364C1.5 102.372 0.5 111.899 0.5 113.562C0.5 115.125 1.85 115.982 2.55 114.873C2.8 114.47 3 112.806 3 111.092C3 109.379 3.15 106.959 3.3 105.649C3.65 103.381 3.7 103.28 4.95 103.532C12.35 105.246 13.75 105.296 13.75 104.086C13.75 103.33 13.3 103.028 12 102.776C8.5 102.07 4.7 101.314 3.4 101.012C2.45 100.81 1.95 100.911 1.8 101.364Z" fill="{{site.data['themeselect'].theme_color_code}}"/>
<path d="M156.4 101.062C156.25 101.263 155.05 101.616 153.75 101.969C151.1 102.624 149.85 103.884 150.85 104.892C151.35 105.396 151.95 105.346 153.6 104.842C158.85 103.279 159 103.179 159 101.969C159 101.112 158.7 100.81 157.85 100.81C157.2 100.81 156.55 100.91 156.4 101.062Z" fill="{{site.data['themeselect'].theme_color_code}}"/>
<path d="M122.6 102.876C122.7 103.733 123.35 104.136 125.25 104.64C126.65 104.993 128.5 105.295 129.4 105.346C130.75 105.346 131 105.144 131 104.186C131 103.178 130.6 102.926 128.1 102.422C123.65 101.515 122.4 101.616 122.6 102.876Z" fill="{{site.data['themeselect'].theme_color_code}}"/>
<path d="M140.1 103.733C136.65 103.884 136.45 103.934 136.6 104.993C136.75 106.051 137 106.102 140.75 106.102C144.65 106.102 144.75 106.051 144.75 104.892C144.75 103.481 144.85 103.481 140.1 103.733Z" fill="{{site.data['themeselect'].theme_color_code}}"/>
<path d="M79.2499 105.951C74.1999 109.58 74.3499 109.378 75.2499 110.386C76.0499 111.294 76.2499 111.243 79.5499 109.025C82.4999 107.06 82.8999 106.606 82.4499 105.8C81.7999 104.59 81.0999 104.59 79.2499 105.951Z" fill="{{site.data['themeselect'].theme_color_code}}"/>
<path d="M6.2996 106.002C5.4996 106.607 5.4496 106.808 6.0496 107.766C6.4496 108.371 7.1496 108.875 7.6496 108.875C8.9996 108.875 9.2996 107.413 8.1496 106.304C7.3496 105.447 7.0996 105.447 6.2996 106.002Z" fill="{{site.data['themeselect'].theme_color_code}}"/>
<path d="M12.3501 112.453C11.9001 112.755 11.5001 113.209 11.5501 113.562C11.5501 114.469 16.5501 118.451 17.6001 118.451C19.1001 118.451 19.3501 116.889 17.9501 115.981C17.3001 115.528 15.9501 114.469 15.0001 113.562C13.6501 112.352 13.0501 112.1 12.3501 112.453Z" fill="{{site.data['themeselect'].theme_color_code}}"/>
<path d="M66.15 113.966C64 115.024 63 115.831 63 116.436C63 118.099 63.95 118.049 67.4 116.335C69.85 115.125 70.75 114.419 70.75 113.663C70.75 112.202 69.6 112.252 66.15 113.966Z" fill="{{site.data['themeselect'].theme_color_code}}"/>
<path d="M53.5 119.207C51.1 120.064 50.25 120.618 50.25 121.274C50.25 122.584 51.9 122.735 54.85 121.727C58.05 120.618 58.6 120.114 57.95 118.905C57.4 117.796 57.6 117.745 53.5 119.207Z" fill="{{site.data['themeselect'].theme_color_code}}"/>
<path d="M23.2998 120.265C22.8498 121.425 23.1998 121.777 25.9498 122.685C29.5498 123.844 31.0998 123.794 30.8998 122.382C30.7998 121.525 30.0998 121.122 27.4998 120.366C23.5498 119.257 23.6998 119.257 23.2998 120.265Z" fill="{{site.data['themeselect'].theme_color_code}}"/>
<path d="M39.75 121.929C37.2 122.181 36.75 122.383 36.75 123.24C36.75 124.147 37.1 124.248 40.75 124.248C44.7 124.248 44.75 124.248 44.75 122.988C44.75 121.526 44.35 121.476 39.75 121.929Z" fill="{{site.data['themeselect'].theme_color_code}}"/>
</g>
<defs>
<clipPath id="clip0">
<rect width="176" height="125" fill="white"/>
</clipPath>
</defs>
</svg>
