<?xml version="1.0" encoding="utf-8"?>
<!-- Generator: Adobe Illustrator 19.0.0, SVG Export Plug-In . SVG Version: 6.00 Build 0)  -->
<svg version="1.1" id="Layer_1" xmlns="http://www.w3.org/2000/svg" xmlns:xlink="http://www.w3.org/1999/xlink" x="0px" y="0px"
	 viewBox="0 0 200 200" style="enable-background:new 0 0 200 200;" xml:space="preserve">
<path id="XMLID_5_" style="fill:#DE274A;" d="M147,184.6c-46.8,0-93.6,0-140.4,0.1c-2.9,0-3.5-0.6-3.5-3.5
	C3.2,126.8,3.2,72.4,3.1,18c0-2.9,0.6-3.5,3.5-3.5c45.4,0.1,90.8,0.1,136.2,0.1c-0.4,1.3-1.7,1.3-2.7,1.6
	c-16.1,4.7-26.2,15.2-30.5,31.4c-1.2,4.7-1.5,4.8-5.3,1.5c-26.4-22.9-64.8-5.6-72,22.4c-3.9,15.3,0.7,28.7,9.2,41.1
	c9.5,13.8,22.4,24.1,36.2,33.3c20.8,13.9,43.2,24.8,65.5,35.9C144.6,182.4,146.7,182.5,147,184.6z"/>
<path id="XMLID_2_" style="fill:#F9F9F8;" d="M147,184.6c-0.4-2.1-2.4-2.2-3.8-2.9c-22.3-11.1-44.7-22-65.5-35.9
	c-13.8-9.2-26.6-19.5-36.2-33.3c-8.6-12.4-13.2-25.8-9.2-41.1c7.2-28,45.5-45.3,72-22.4c3.8,3.3,4,3.2,5.3-1.5
	c4.3-16.2,14.3-26.8,30.5-31.4c1.1-0.3,2.3-0.3,2.7-1.6c17.2,0,34.4,0,51.6-0.1c2.1,0,2.6,0.5,2.6,2.6c-0.1,55-0.1,110,0,165
	c0,2.1-0.5,2.6-2.6,2.6C178.6,184.6,162.8,184.6,147,184.6z M191.9,62.9c0.6-8.4-1.4-18-6.7-26.5C178,24.7,160.9,17,146,20.4
	c-10.3,2.3-19.4,6.2-25.5,15.3c-4.6,6.9-6.6,14.7-8.1,22.7c-0.5,2.5-1.3,3.4-3.5,1.5c-3.1-2.6-6.2-5.3-9.4-7.7
	c-6.7-5.1-14.3-8.8-22.7-8.5C68.5,43.9,60.2,46,53.1,51c-10.2,7.3-16.2,17-17,29.8c-0.7,11,3.5,20.3,9.5,28.9
	c8.8,12.7,20.5,22.5,33.3,31.1c21.1,14.2,43.9,25.3,66.5,36.7c2,1,2.8,0.6,3.8-1.3c6-11.2,12.3-22.3,18-33.7
	c4.9-9.7,9.5-19.7,13.6-29.8C187,97.3,192.2,81.5,191.9,62.9z"/>
</svg>
